{"frames": [

{
	"filename": "ui_0.png",
	"frame": {"x":95,"y":2,"w":29,"h":29},
	"rotated": false,
	"trimmed": false,
	"spriteSourceSize": {"x":0,"y":0,"w":29,"h":29},
	"sourceSize": {"w":29,"h":29}
},
{
	"filename": "ui_1.png",
	"frame": {"x":33,"y":95,"w":17,"h":29},
	"rotated": false,
	"trimmed": false,
	"spriteSourceSize": {"x":0,"y":0,"w":17,"h":29},
	"sourceSize": {"w":17,"h":29}
},
{
	"filename": "ui_2.png",
	"frame": {"x":64,"y":2,"w":29,"h":29},
	"rotated": false,
	"trimmed": false,
	"spriteSourceSize": {"x":0,"y":0,"w":29,"h":29},
	"sourceSize": {"w":29,"h":29}
},
{
	"filename": "ui_3.png",
	"frame": {"x":33,"y":2,"w":29,"h":29},
	"rotated": false,
	"trimmed": false,
	"spriteSourceSize": {"x":0,"y":0,"w":29,"h":29},
	"sourceSize": {"w":29,"h":29}
},
{
	"filename": "ui_4.png",
	"frame": {"x":33,"y":33,"w":28,"h":29},
	"rotated": false,
	"trimmed": false,
	"spriteSourceSize": {"x":0,"y":0,"w":28,"h":29},
	"sourceSize": {"w":28,"h":29}
},
{
	"filename": "ui_5.png",
	"frame": {"x":2,"y":95,"w":29,"h":29},
	"rotated": false,
	"trimmed": false,
	"spriteSourceSize": {"x":0,"y":0,"w":29,"h":29},
	"sourceSize": {"w":29,"h":29}
},
{
	"filename": "ui_6.png",
	"frame": {"x":2,"y":64,"w":29,"h":29},
	"rotated": false,
	"trimmed": false,
	"spriteSourceSize": {"x":0,"y":0,"w":29,"h":29},
	"sourceSize": {"w":29,"h":29}
},
{
	"filename": "ui_7.png",
	"frame": {"x":33,"y":64,"w":25,"h":29},
	"rotated": false,
	"trimmed": false,
	"spriteSourceSize": {"x":0,"y":0,"w":25,"h":29},
	"sourceSize": {"w":25,"h":29}
},
{
	"filename": "ui_8.png",
	"frame": {"x":2,"y":33,"w":29,"h":29},
	"rotated": false,
	"trimmed": false,
	"spriteSourceSize": {"x":0,"y":0,"w":29,"h":29},
	"sourceSize": {"w":29,"h":29}
},
{
	"filename": "ui_9.png",
	"frame": {"x":2,"y":2,"w":29,"h":29},
	"rotated": false,
	"trimmed": false,
	"spriteSourceSize": {"x":0,"y":0,"w":29,"h":29},
	"sourceSize": {"w":29,"h":29}
},
{
	"filename": "ui_x.png",
	"frame": {"x":52,"y":95,"w":25,"h":24},
	"rotated": false,
	"trimmed": false,
	"spriteSourceSize": {"x":0,"y":0,"w":25,"h":24},
	"sourceSize": {"w":25,"h":24}
}],
"meta": {
	"app": "http://www.texturepacker.com",
	"version": "1.0",
	"image": "fonts.png",
	"format": "RGBA8888",
	"size": {"w":128,"h":128},
	"scale": "1",
	"smartupdate": "$TexturePacker:SmartUpdate:7b4666564034d4f31b63a65ead3f8f57$"
}
}
